…
#> ✔ data completed [644ms, 1.21 kB]
#> + rows_as_files dispatched
#> INFO [2025-09-15 21:30:06] Identify rows of new, updated and/or outdated property info + update tracked files.
#> INFO [2025-09-15 21:30:06] ids_new_or_changed_rows: 100
#> INFO [2025-09-15 21:30:06] new_or_updated_files: 100
#> INFO [2025-09-15 21:30:06] deleted_files: 0
#> ✔ rows_as_files completed [156ms, 1.91 kB]
#> + input_files dispatched
#> ✔ input_files completed [0ms, 737 B]
#> + input declared [100 branches]
#> ✔ input completed [1ms, 16.45 kB]
#> + whatever declared [100 branches]
#> ✔ whatever completed [18ms, 16.45 kB]
#> ✔ ended pipeline [1.3s, 203 completed, 0 skipped]
#> # A tibble: 100 × 2
#>    package   downloads
#>    <chr>     <chr>    
#>  1 tibble    1640635  
#>  2 rlang     1616106  
#>  3 ggplot2   1609534  
#>  4 lifecycle 1576817  
#>  5 cli       1554412  
#>  6 dplyr     1488631  
#>  7 rmarkdown 1485582  
#>  8 glue      1402521  
#>  9 vctrs     1346809  
#> 10 purrr     1340272  
#> # ℹ 90 more rows
```
